Module 3 Solutions – Analysis of Linked Health Data
…
There should be 79,135 transseq values of 0. 839 admissions (periods of stay) contained 1 or more transfers (transseq = 1). The maximum number of transfers within any admission was 22.

Examine a portion of the dataset to check that you have identified transfers correctly.

## Check PPN 286 as an example
ppn_subset_2000 %>%
  filter(ppn == 286) %>%
  select(ppn, episode_start_date, episode_end_date, mode_of_separation_recode, stayseq, transseq, totlos) %>%
  print()

# A tibble: 34 × 7
     ppn episode_start_date episode_end_date mode_of_separation_recode  stayseq
   <dbl> <date>             <date>           <fct>                        <dbl>
 1   286 2000-08-29         2000-08-29       Discharge by hospital            1
 2   286 2000-11-07         2000-11-07       Discharge by hospital            2
 3   286 2001-01-09         2001-01-15       Discharge by hospital            3
 4   286 2001-03-28         2001-03-30       Discharge by hospital            4
 5   286 2001-05-16         2001-05-16       Discharge by hospital            5
 6   286 2001-05-22         2001-05-22       Transfer to other hospital       6
 7   286 2001-05-22         2001-05-26       Discharge by hospital            7
 8   286 2001-05-25         2001-05-25       Transfer to other hospital       7
 9   286 2001-05-30         2001-06-01       Transfer to other hospital       8
10   286 2001-06-01         2001-06-07       Transfer to other hospital       9
# ℹ 24 more rows
# ℹ 2 more variables: transseq <dbl>, totlos <drtn>
…
